<?xml version="1.0" encoding="utf-8"?>

<svg version="1.1"
  xmlns="http://www.w3.org/2000/svg"
  xmlns:xlink="http://www.w3.org/1999/xlink"
  fill="#000000"
  height="300"
  width="300"
  x="0"
  y="0"
  viewBox="0 0 100 100">
  <path d="M92.5,14.2c-1.5-1.5-3.5-2.3-5.7-2.3c-2.1,0-4.1,0.8-5.7,2.3L65.3,30.1H13.1c-4.4,0-8,3.6-8,8v30c0,4.4,3.6,8,8,8h2v10  c0,0.8,0.5,1.5,1.2,1.8c0.3,0.1,0.6,0.2,0.8,0.2c0.5,0,0.9-0.2,1.3-0.5l13.4-11.5h35.3c4.4,0,8-3.6,8-8V42.9l14.5-14.6h0l2.8-2.8  C95.6,22.4,95.6,17.3,92.5,14.2z M71.1,68.1c0,2.2-1.8,4-4,4h-36c-0.5,0-0.9,0.2-1.3,0.5l-10.7,9.2v-7.6c0-1.1-0.9-2-2-2h-4  c-2.2,0-4-1.8-4-4v-30c0-2.2,1.8-4,4-4h48.2l-12,12H27.1c-1.1,0-2,0.9-2,2c0,1.1,0.9,2,2,2h20.7l-0.9,6H27.1c-1.1,0-2,0.9-2,2  c0,1.1,0.9,2,2,2h21c0.2,0,0.3,0,0.5-0.1h0.1c0.1,0,0.2,0,0.3,0l9.9-1.4c0.4-0.1,0.8-0.3,1.1-0.6l11.1-11.1V68.1z M52.2,48.9  l5.7,5.7l-0.2,0.2L51,55.7l0.9-6.6L52.2,48.9z M60.7,51.7L55,46l24.8-24.8l5.7,5.7L60.7,51.7z M89.7,22.7l-1.4,1.4l-5.7-5.7L84,17  c0.8-0.8,1.8-1.2,2.8-1.2s2.1,0.4,2.8,1.2C91.3,18.6,91.3,21.1,89.7,22.7z"></path>
</svg>
